\relax 
\citation{tavernier2006radiation}
\citation{phillips1995gamma}
\citation{moses1994pet}
\citation{reilly1991passive}
\@writefile{toc}{\contentsline {subsection}{\numberline {\unhbox \voidb@x \hbox {-A}}Keywords}{1}}
\newlabel{fig:MC}{{\unhbox \voidb@x \hbox {-A}}{1}}
\@writefile{lof}{\contentsline {figure}{\numberline {1}{\ignorespaces  Illustrate the Monte-Carlo GATE simulation for the Dual Detector for Gamma ($\gamma $) radiation spectroscopy}}{1}}
\@writefile{toc}{\contentsline {section}{\numberline {I}Introduction}{1}}
\@writefile{toc}{\contentsline {subsection}{\numberline {\unhbox \voidb@x \hbox {I-A}}The Scintillation Detector}{1}}
\citation{reilly1991passive}
\citation{lempicki1993fundamental}
\citation{van2002scintillation}
\citation{wei2014scintillation}
\citation{humm2003pet}
\citation{reilly1991passive}
\citation{knoll2010radiation}
\@writefile{toc}{\contentsline {subsubsection}{\numberline {\unhbox \voidb@x \hbox {I-A}1}The Scintillation material}{2}}
\newlabel{eqn:efficiency}{{1}{2}}
\@writefile{toc}{\contentsline {subsubsection}{\numberline {\unhbox \voidb@x \hbox {I-A}2}The proposed Gamma ($\gamma $) radiation scintillator requirements}{2}}
\@writefile{toc}{\contentsline {subsection}{\numberline {\unhbox \voidb@x \hbox {I-B}}Semiconductor (solid state) detectors}{2}}
\newlabel{fig:2si}{{\unhbox \voidb@x \hbox {I-B}}{2}}
\@writefile{lof}{\contentsline {figure}{\numberline {2}{\ignorespaces  Illustrate the two silicon ($Si$) detectors, each of them consists of (15 x 15 ) pixel elements, each pixel is (2 cm x 2 cm) , and the spacing between the pixels is 1mm }}{2}}
\citation{diaz2012sistema}
\citation{prasad2014scatter}
\@writefile{toc}{\contentsline {subsubsection}{\numberline {\unhbox \voidb@x \hbox {I-B}1}The Gamma ($\gamma $) radiation semiconductor detector characteristics}{3}}
\newlabel{eqn:compton}{{2}{3}}
\newlabel{fig:angle}{{\unhbox \voidb@x \hbox {I-B}1}{3}}
\@writefile{lof}{\contentsline {figure}{\numberline {3}{\ignorespaces  Illustrate the change of the gamma ($\gamma $) photon scatering angle theta $\theta $ vs. the energy of the gamma ($\gamma $) photon }}{3}}
\@writefile{toc}{\contentsline {section}{\numberline {II}Methodology}{3}}
\newlabel{fig:si}{{II}{3}}
\@writefile{lof}{\contentsline {figure}{\numberline {4}{\ignorespaces  Illustrate the silicon ($Si$) layer detector, consists of (15 x 15 ) pixel elements, each pixel area is $4\ cm^2$ , and the spacing between the pixels is 1 mm }}{3}}
\newlabel{fig:gamma tracking}{{II}{3}}
\@writefile{lof}{\contentsline {figure}{\numberline {5}{\ignorespaces  Illustrate the tracking of the gamma ($\gamma $) photon and energy deposition in the scintillation material }}{3}}
\@writefile{toc}{\contentsline {subsection}{\numberline {\unhbox \voidb@x \hbox {II-A}}GATE simulation}{3}}
\bibdata{gamma}
\bibcite{aguiar2010geometrical}{1}
\bibcite{bailey2005positron}{2}
\bibcite{busca2010silicon}{3}
\bibcite{cherry2012physics}{4}
\bibcite{cooper2007smartpet}{5}
\@writefile{toc}{\contentsline {section}{\numberline {III}Results and Analysis}{4}}
\newlabel{eqn:tracker}{{3}{4}}
\@writefile{toc}{\contentsline {section}{\numberline {IV}Discussion}{4}}
\@writefile{toc}{\contentsline {section}{\numberline {V}Conclusions}{4}}
\@writefile{toc}{\contentsline {section}{References}{4}}
\bibcite{degenhardt2012performance}{6}
\bibcite{diaz2012sistema}{7}
\bibcite{frach2009digital}{8}
\bibcite{frach2010digital}{9}
\bibcite{humm2003pet}{10}
\bibcite{HamamatsuArticles}{11}
\bibcite{khandaker2011high}{12}
\bibcite{knoll2010radiation}{13}
\bibcite{lechner1996silicon}{14}
\bibcite{lempicki1993fundamental}{15}
\bibcite{manfredotti1998cvd}{16}
\bibcite{moses2009photodetectors}{17}
\bibcite{moses1994pet}{18}
\bibcite{pepin2010new}{19}
\bibcite{phillips1995gamma}{20}
\bibcite{photonics2013encyclopedia}{21}
\bibcite{prasad2014scatter}{22}
\bibcite{reilly1991passive}{23}
\bibcite{roncali2011application}{24}
\bibcite{salomon2011simultaneous}{25}
\bibcite{SGX}{26}
\bibcite{takeda2008double}{27}
\bibcite{tavernier2006radiation}{28}
\bibcite{van2002scintillation}{29}
\bibcite{wei2014scintillation}{30}
\bibcite{weilhammer1998recent}{31}
\bibstyle{plain}
\citation{*}
